{
   "* bbcode":{
      "name":"* bbcode",
      "aliases":[
         "* bbcode",
         " bb:"
      ],
      "description":"Format tokens with BBcodes. These formatting codes are used by many bulletin boards, so you can highlight your sourcecode with pygments before posting it there."
   },
   "bb:":{
      "name":"bb:",
      "aliases":[
         "* bbcode",
         " bb:"
      ],
      "description":"Format tokens with BBcodes. These formatting codes are used by many bulletin boards, so you can highlight your sourcecode with pygments before posting it there."
   },
   "* bmp":{
      "name":"* bmp",
      "aliases":[
         "* bmp",
         " bitmap:"
      ],
      "description":"Create a bitmap image from source code. This uses the Python Imaging Library to generate a pixmap from the source code. (filenames *.bmp)"
   },
   "bitmap:":{
      "name":"bitmap:",
      "aliases":[
         "* bmp",
         " bitmap:"
      ],
      "description":"Create a bitmap image from source code. This uses the Python Imaging Library to generate a pixmap from the source code. (filenames *.bmp)"
   },
   "* gif:":{
      "name":"* gif:",
      "aliases":[
         "* gif:"
      ],
      "description":"Create a GIF image from source code. This uses the Python Imaging Library to generate a pixmap from the source code. (filenames *.gif)"
   },
   "* html:":{
      "name":"* html:",
      "aliases":[
         "* html:"
      ],
      "description":"Format tokens as HTML 4 ``<span>`` tags within a ``<pre>`` tag, wrapped in a ``<div>`` tag. The ``<div>``'s CSS class can be set by the `cssclass` option. (filenames *.html, *.htm)"
   },
   "* img":{
      "name":"* img",
      "aliases":[
         "* img",
         " IMG",
         " png:"
      ],
      "description":"Create a PNG image from source code. This uses the Python Imaging Library to generate a pixmap from the source code. (filenames *.png)"
   },
   "IMG":{
      "name":"IMG",
      "aliases":[
         "* img",
         " IMG",
         " png:"
      ],
      "description":"Create a PNG image from source code. This uses the Python Imaging Library to generate a pixmap from the source code. (filenames *.png)"
   },
   "png:":{
      "name":"png:",
      "aliases":[
         "* img",
         " IMG",
         " png:"
      ],
      "description":"Create a PNG image from source code. This uses the Python Imaging Library to generate a pixmap from the source code. (filenames *.png)"
   },
   "* jpg":{
      "name":"* jpg",
      "aliases":[
         "* jpg",
         " jpeg:"
      ],
      "description":"Create a JPEG image from source code. This uses the Python Imaging Library to generate a pixmap from the source code. (filenames *.jpg)"
   },
   "jpeg:":{
      "name":"jpeg:",
      "aliases":[
         "* jpg",
         " jpeg:"
      ],
      "description":"Create a JPEG image from source code. This uses the Python Imaging Library to generate a pixmap from the source code. (filenames *.jpg)"
   },
   "* latex":{
      "name":"* latex",
      "aliases":[
         "* latex",
         " tex:"
      ],
      "description":"Format tokens as LaTeX code. This needs the `fancyvrb` and `color` standard packages. (filenames *.tex)"
   },
   "tex:":{
      "name":"tex:",
      "aliases":[
         "* latex",
         " tex:"
      ],
      "description":"Format tokens as LaTeX code. This needs the `fancyvrb` and `color` standard packages. (filenames *.tex)"
   },
   "* raw":{
      "name":"* raw",
      "aliases":[
         "* raw",
         " tokens:"
      ],
      "description":"Format tokens as a raw representation for storing token streams. (filenames *.raw)"
   },
   "tokens:":{
      "name":"tokens:",
      "aliases":[
         "* raw",
         " tokens:"
      ],
      "description":"Format tokens as a raw representation for storing token streams. (filenames *.raw)"
   },
   "* rtf:":{
      "name":"* rtf:",
      "aliases":[
         "* rtf:"
      ],
      "description":"Format tokens as RTF markup. This formatter automatically outputs full RTF documents with color information and other useful stuff. Perfect for Copy and Paste into Microsoft\u00ae Word\u00ae documents. (filenames *.rtf)"
   },
   "* svg:":{
      "name":"* svg:",
      "aliases":[
         "* svg:"
      ],
      "description":"Format tokens as an SVG graphics file.  This formatter is still experimental. Each line of code is a ``<text>`` element with explicit ``x`` and ``y`` coordinates containing ``<tspan>`` elements with the individual token styles. (filenames *.svg)"
   },
   "* terminal":{
      "name":"* terminal",
      "aliases":[
         "* terminal",
         " console:"
      ],
      "description":"Format tokens with ANSI color sequences, for output in a text console. Color sequences are terminated at newlines, so that paging the output works correctly."
   },
   "console:":{
      "name":"console:",
      "aliases":[
         "* terminal",
         " console:"
      ],
      "description":"Format tokens with ANSI color sequences, for output in a text console. Color sequences are terminated at newlines, so that paging the output works correctly."
   },
   "* terminal256":{
      "name":"* terminal256",
      "aliases":[
         "* terminal256",
         " console256",
         " 256:"
      ],
      "description":"Format tokens with ANSI color sequences, for output in a 256-color terminal or console. Like in `TerminalFormatter` color sequences are terminated at newlines, so that paging the output works correctly."
   },
   "console256":{
      "name":"console256",
      "aliases":[
         "* terminal256",
         " console256",
         " 256:"
      ],
      "description":"Format tokens with ANSI color sequences, for output in a 256-color terminal or console. Like in `TerminalFormatter` color sequences are terminated at newlines, so that paging the output works correctly."
   },
   "256:":{
      "name":"256:",
      "aliases":[
         "* terminal256",
         " console256",
         " 256:"
      ],
      "description":"Format tokens with ANSI color sequences, for output in a 256-color terminal or console. Like in `TerminalFormatter` color sequences are terminated at newlines, so that paging the output works correctly."
   },
   "* text":{
      "name":"* text",
      "aliases":[
         "* text",
         " null:"
      ],
      "description":"Output the text unchanged without any formatting. (filenames *.txt)"
   },
   "null:":{
      "name":"null:",
      "aliases":[
         "* text",
         " null:"
      ],
      "description":"Output the text unchanged without any formatting. (filenames *.txt)"
   }
}